<?xml version="1.0" encoding="utf-8"?>
<!-- Generator: Adobe Illustrator 16.0.3, SVG Export Plug-In . SVG Version: 6.00 Build 0)  -->
<!DOCTYPE svg PUBLIC "-//W3C//DTD SVG 1.1//EN" "http://www.w3.org/Graphics/SVG/1.1/DTD/svg11.dtd">
<svg version="1.1" id="Layer_1" xmlns="http://www.w3.org/2000/svg" xmlns:xlink="http://www.w3.org/1999/xlink" x="0px" y="0px"
	 width="120px" height="121px" viewBox="0 0 120 121" enable-background="new 0 0 120 121" xml:space="preserve">
<g>
	<path fill="#147392" d="M5.712,113.098c-0.659,2.629,0.065,4.774,2.173,6.442c2.107,1.666,4.379,1.89,6.816,0.673l16.892-7.98
		c1.711-0.77,3.556-0.77,5.531,0c11.721,4.937,23.608,6.029,35.66,3.269c12.05-2.755,22.325-8.365,30.819-16.826
		c8.496-8.397,13.631-18.14,15.41-29.229c1.842-11.021,1.119-21.021-2.174-30c-3.293-8.974-8.363-16.666-15.212-23.08
		c-6.915-6.409-14.981-10.993-24.2-13.75c-9.285-2.755-18.373-3.332-27.26-1.731c-13.567,2.18-24.86,8.11-33.881,17.789
		c-9.09,9.615-14.39,20.929-15.904,33.942c-1.516,12.948,1.514,25.26,9.09,36.922c1.119,1.668,1.447,3.334,0.987,5l-4.741,18.558"/>
</g>
</svg>
